[gd_scene load_steps=4 format=2]

[ext_resource path="res://Assets/GUI/Skill_Icon/if762.png" type="Texture" id=1]
[ext_resource path="res://Assets/GUI/Utility/SkillBorder.png" type="Texture" id=2]
[ext_resource path="res://Scripts/GUI/Skills.gd" type="Script" id=3]

[node name="MarginContainer" type="MarginContainer"]
margin_right = 50.0
margin_bottom = 50.0
custom_constants/margin_left = 0
script = ExtResource( 3 )
__meta__ = {
"_edit_use_anchors_": false
}

[node name="NinePatchRect" type="NinePatchRect" parent="."]
margin_right = 50.0
margin_bottom = 50.0
rect_min_size = Vector2( 50, 50 )
texture = ExtResource( 2 )

[node name="TextureRect" type="TextureRect" parent="NinePatchRect"]
anchor_left = 0.5
anchor_top = 0.5
anchor_right = 0.5
anchor_bottom = 0.5
margin_left = -23.5
margin_top = -23.5
margin_right = 22.5
margin_bottom = 22.5
texture = ExtResource( 1 )
expand = true
__meta__ = {
"_edit_use_anchors_": false
}

[node name="CastNumber" type="Label" parent="NinePatchRect"]
anchor_right = 1.0
anchor_bottom = 1.0
margin_top = 1.0
margin_right = -1.0
text = "1"
align = 2
__meta__ = {
"_edit_use_anchors_": false
}

[node name="Cooldown" type="Label" parent="NinePatchRect"]
anchor_right = 1.0
anchor_bottom = 1.0
margin_right = -1.0
margin_bottom = -1.0
custom_colors/font_color = Color( 0, 0.0470588, 0.537255, 1 )
text = "200"
align = 2
valign = 2
__meta__ = {
"_edit_use_anchors_": false
}
