[gd_resource type="Theme" load_steps=3 format=2]

[sub_resource type="DynamicFontData" id=1]

[sub_resource type="DynamicFont" id=2]
font_data = SubResource( 1 )

[resource]
default_font = SubResource( 2 )
Label/colors/font_color = Color( 1, 1, 1, 1 )
Label/colors/font_color_shadow = Color( 0, 0, 0, 0 )
Label/colors/font_outline_modulate = Color( 1, 1, 1, 1 )
Label/constants/line_spacing = 3
Label/constants/shadow_as_outline = 0
Label/constants/shadow_offset_x = 1
Label/constants/shadow_offset_y = 1
Label/fonts/font = null
Label/styles/normal = null
